{
    "device": "cuda",
    "type": "float",
    "normalization": {
        "normalization_file": "normalizers/stats.pt",
        "poses": true,
        "trans": true,
        "betas": true
    },
    "dataset": {
        "load": true,
        "pose_hand": false,
        "joint_repr": {
            "name": "six",
            "dim": 6
        },
        "max_duration": 5.0,
        "min_duration": 3.0,
        "preprocessed": true,
        "precompute": false,
        "normalized": false,
        "margin": 0
    },
    "body_model": {
        "smpl_info": "../body_models/smplh/neutral/model.npz",
        "num_betas": 8,
        "num_dmpls": 0,
        "dmpl_info": "../body_models/dmpls/neutral/model.npz"
    },
    "model": {
        "type": "temporalsegmentation",
        "encoder": {
            "type": "encoder",
            "frame_dim": 123,
            "latent_dim": 256,
            "nframes": 100,
            "nsegments": 8,
            "nhead": 4,
            "num_layers": 4
        },
        "decoder": {
            "type": "decoder",
            "frame_dim": 123,
            "hidden_dim": 512,
            "latent_dim": 256,
            "nsegments": 8,
            "nhead": 4,
            "num_layers": 4,
            "masking": "gaussian",
            "masking_slope": 1,
            "latent_morpho_dim": 8,
            "learn_segm": true
        },
        "joint_repr": {
            "name": "six",
            "dim": 6
        },
        "number_of_joints": 20,
        "joints": [
            0,
            1,
            2,
            3,
            4,
            5,
            6,
            7,
            8,
            9,
            12,
            13,
            14,
            15,
            16,
            17,
            18,
            19,
            20,
            21
        ],
        "warping": "relu"
    },
    "training": {
        "initialization": "../out/model.pt",
        "save_freq": 10,
        "folder": "../AMASSnhpp/AMASStrain/",
        "lr": 1e-4,
        "sparse_training": 10000,
        "kl_weight": 1e-4,
        "mask_reg_weight": 1e-2,
        "batch_size": 16,
        "max_epochs": 2000,
        "printout_freq": 30,
        "checkpoint_folder": "",
        "mesh_start": 500,
        "mesh_weight": 1,
        "ft_subsample": 10,
        "nsample": "all",
        "deactivate_duration": -1
    },
    "validation": {
        "folder": "../AMASSnhpp/AMASSvald/",
        "batch_size": 16
    },
    "experiment": {
        "name": "Seq. Lat primitives",
        "folder": "../out/",
        "out_file": "../out/model.pt"
    }
}